Andrew Zieffler - Minnesota State High School Boys Hockey Predictions
…
At this point I did a data integrity check. The first thing I noticed was that there were games in the data on every day from the start of the regular season through the section playoffs. I knew somethibng was wrong as high school teams do not play games on Sundays or on holidays. In looking at those days, it turned out the web scraper just duplicated games from future days (e.g., there was no game on 12-25-2017, so it just skipped ahead to the next day a game was played, 12-26-2017, and put those games in the December 25th date. It then also put them in the 12-26-2017 date as well.) Rather than try to program a solution in R, I outputted the data to a CSV file and manually removed the few dates that there were no games played.

# A tibble: 2,047 × 7
   date     home               home_score visitor  visitor_score location season
   <chr>    <chr>                   <dbl> <chr>            <dbl> <chr>    <chr> 
 1 11/22/17 Anoka                       4 Rogers               1 Anoka A… Regul…
 2 11/22/17 Providence Academy          2 Spring …             3 Plymout… Regul…
 3 11/22/17 St. Paul Academy            3 Bloomin…             2 Drake A… Regul…
 4 11/24/17 Armstrong/Cooper           10 Proctor              0 Chisago… Regul…
 5 11/24/17 Baldwin-Woodville           2 St. Pau…             4 Amery I… Regul…
 6 11/24/17 Eastview                    5 Park of…             3 Apple V… Regul…
 7 11/24/17 Orono                       5 East Gr…             3 Orono I… Regul…
 8 11/24/17 Greenway                    5 Mound W…             3 Hodgins… Regul…
 9 11/24/17 Minnesota River             2 North B…             8 Turkey … Regul…
10 11/24/17 Edina                       7 Holy Fa…             0 Plymout… Regul…
# ℹ 2,037 more rows
…
